Compute factor score estimates (a.k.a, ability estimates, latent trait estimates, etc) — fscores • mirt
…
#> [387,]  1.04076928
#> [388,] -0.72780193
#> [389,] -0.54147595
#> [390,] -2.54378066
#> [391,] -0.34506303
#> [392,] -0.34658376
(tabscores <- fscores(mod, full.scores = FALSE))
#> 
#> Method:  EAP
#> 
#> Empirical Reliability:
#> 
#>     F1 
#> 0.6666 
#> # A tibble: 90 × 6
#>    Comfort  Work Future Benefit     F1 SE_F1
#>      <dbl> <dbl>  <dbl>   <dbl>  <dbl> <dbl>
#>  1       1     1      1       1 -2.75  0.629
#>  2       1     3      2       1 -1.42  0.577
#>  3       1     4      2       3 -0.714 0.620
#>  4       1     4      3       1 -0.447 0.651
#>  5       2     1      1       1 -2.54  0.591
#>  6       2     1      2       4 -1.25  0.584
#>  7       2     2      1       1 -2.19  0.573
#>  8       2     2      2       2 -1.41  0.520
#>  9       2     2      2       3 -1.16  0.534
#> 10       2     2      3       1 -0.999 0.583
#> # ℹ 80 more rows
…
# use custom latent variable properties (diffuse prior for MAP is very close to ML)
fscores(mod, method='MAP', cov = matrix(1000), full.scores = FALSE)
#> 
#> Method:  MAP
#> 
#> Empirical Reliability:
#> 
#>     F1 
#> 0.4207 
#> # A tibble: 90 × 6
#>    Comfort  Work Future Benefit     F1 SE_F1
#>      <dbl> <dbl>  <dbl>   <dbl>  <dbl> <dbl>
#>  1       1     1      1       1 -9.34  9.64 
#>  2       1     3      2       1 -2.10  0.689
#>  3       1     4      2       3 -1.15  0.705
#>  4       1     4      3       1 -0.781 0.807
#>  5       2     1      1       1 -4.39  1.18 
#>  6       2     1      2       4 -1.86  0.668
#>  7       2     2      1       1 -3.25  0.812
#>  8       2     2      2       2 -1.91  0.588
#>  9       2     2      2       3 -1.61  0.608
#> 10       2     2      3       1 -1.47  0.714
#> # ℹ 80 more rows
fscores(mod, method='ML', full.scores = FALSE)
#> 
#> Method:  ML
#> 
#> Empirical Reliability:
#> 
#>    F1 
#> 0.716 
#> # A tibble: 90 × 6
#>    Comfort  Work Future Benefit       F1  SE_F1
#>      <dbl> <dbl>  <dbl>   <dbl>    <dbl>  <dbl>
#>  1       1     1      1       1 -Inf     NA    
#>  2       1     3      2       1   -2.10   0.689
#>  3       1     4      2       3   -1.15   0.705
#>  4       1     4      3       1   -0.781  0.807
#>  5       2     1      1       1   -4.40   1.18 
#>  6       2     1      2       4   -1.86   0.668
#>  7       2     2      1       1   -3.25   0.813
#>  8       2     2      2       2   -1.91   0.588
#>  9       2     2      2       3   -1.61   0.609
#> 10       2     2      3       1   -1.47   0.714
#> # ℹ 80 more rows
…
