Convert an estimated mirt model to a data.frame — mod2values • mirt
…
    Author

    Phil Chalmers rphilip.chalmers@gmail.com

    Examples

# \donttest{
dat <- expand.table(LSAT7)
mod <- mirt(dat, "F=1-5
                  CONSTRAIN=(1-5, a1)")
#> 
values <- mod2values(mod)
values
#> # A tibble: 22 × 14
#>    group item   class name  parnum value lbound ubound est   const nconst
#>    <chr> <chr>  <chr> <chr>  <int> <dbl>  <dbl>  <dbl> <lgl> <chr> <chr> 
#>  1 all   Item.1 dich  a1         1 1.01    -Inf    Inf TRUE  1     none  
#>  2 all   Item.1 dich  d          2 1.87    -Inf    Inf TRUE  none  none  
#>  3 all   Item.1 dich  g          3 0          0      1 FALSE none  none  
#>  4 all   Item.1 dich  u          4 1          0      1 FALSE none  none  
#>  5 all   Item.2 dich  a1         5 1.01    -Inf    Inf TRUE  1     none  
#>  6 all   Item.2 dich  d          6 0.791   -Inf    Inf TRUE  none  none  
#>  7 all   Item.2 dich  g          7 0          0      1 FALSE none  none  
#>  8 all   Item.2 dich  u          8 1          0      1 FALSE none  none  
#>  9 all   Item.3 dich  a1         9 1.01    -Inf    Inf TRUE  1     none  
#> 10 all   Item.3 dich  d         10 1.46    -Inf    Inf TRUE  none  none  
#> # ℹ 12 more rows
#> # ℹ 3 more variables: prior.type <chr>, prior_1 <dbl>, prior_2 <dbl>
…
