Model-based Reliable Change Index — RCI • mirt
…
######
# CTT version by omitting IRT model
    # Requires either sample or population SEM's as input
(istats <- itemstats(dat_pre)$overall)
#>     N mean_total.score sd_total.score ave.r  sd.r alpha SEM.alpha
#>  1000            9.785          4.846 0.214 0.065 0.846     1.901
SEM.alpha <- istats$SEM.alpha    # SEM estimate of dat_pre

# assumes SEM.post = SEM.pre
RCI(predat = dat_pre, postdat = dat_post, SEM.pre=SEM.alpha)
#> # A tibble: 1,000 × 6
#>    pre.score post.score  diff    SE      z        p
#>        <dbl>      <dbl> <dbl> <dbl>  <dbl>    <dbl>
#>  1        18         19     1  2.69  0.372 0.710   
#>  2        18          9    -9  2.69 -3.35  0.000812
#>  3        15          9    -6  2.69 -2.23  0.0256  
#>  4        11         10    -1  2.69 -0.372 0.710   
#>  5         4          5     1  2.69  0.372 0.710   
#>  6         4          8     4  2.69  1.49  0.137   
#>  7        11          8    -3  2.69 -1.12  0.264   
#>  8        11         15     4  2.69  1.49  0.137   
#>  9         3          3     0  2.69  0     1       
#> 10         4          8     4  2.69  1.49  0.137   
#> # ℹ 990 more rows

# include cutoffs
RCI(predat = dat_pre, postdat = dat_post, SEM.pre=SEM.alpha,
    cutoffs=c(-1.96, 1.96))
#> # A tibble: 1,000 × 7
#>    pre.score post.score  diff    SE      z        p cut_decision
#>        <dbl>      <dbl> <dbl> <dbl>  <dbl>    <dbl> <chr>       
#>  1        18         19     1  2.69  0.372 0.710    unchanged   
#>  2        18          9    -9  2.69 -3.35  0.000812 decreased   
#>  3        15          9    -6  2.69 -2.23  0.0256   decreased   
#>  4        11         10    -1  2.69 -0.372 0.710    unchanged   
#>  5         4          5     1  2.69  0.372 0.710    unchanged   
#>  6         4          8     4  2.69  1.49  0.137    unchanged   
#>  7        11          8    -3  2.69 -1.12  0.264    unchanged   
#>  8        11         15     4  2.69  1.49  0.137    unchanged   
#>  9         3          3     0  2.69  0     1        unchanged   
#> 10         4          8     4  2.69  1.49  0.137    unchanged   
#> # ℹ 990 more rows

# allows SEM.post != SEM.pre
(istats.post <- itemstats(dat_post)$overall)
#>     N mean_total.score sd_total.score ave.r  sd.r alpha SEM.alpha
#>  1000            9.745          4.774 0.206 0.063  0.84      1.91
SEM.alpha.post <- istats.post$SEM.alpha

RCI(predat = dat_pre, postdat = dat_post,
   SEM.pre=SEM.alpha, SEM.post=SEM.alpha.post)
#> # A tibble: 1,000 × 6
#>    pre.score post.score  diff    SE      z        p
#>        <dbl>      <dbl> <dbl> <dbl>  <dbl>    <dbl>
#>  1        18         19     1  2.69  0.371 0.711   
#>  2        18          9    -9  2.69 -3.34  0.000836
#>  3        15          9    -6  2.69 -2.23  0.0260  
#>  4        11         10    -1  2.69 -0.371 0.711   
#>  5         4          5     1  2.69  0.371 0.711   
#>  6         4          8     4  2.69  1.48  0.138   
#>  7        11          8    -3  2.69 -1.11  0.266   
#>  8        11         15     4  2.69  1.48  0.138   
#>  9         3          3     0  2.69  0     1       
#> 10         4          8     4  2.69  1.48  0.138   
#> # ℹ 990 more rows

# Supplying only the total scores
TS_pre <- matrix(rowSums(dat_pre))
TS_post <- matrix(rowSums(dat_post))
RCI(predat = TS_pre, postdat = TS_post,
   SEM.pre=SEM.alpha, SEM.post=SEM.alpha.post)
#> # A tibble: 1,000 × 6
#>    pre.score post.score  diff    SE      z        p
#>        <dbl>      <dbl> <dbl> <dbl>  <dbl>    <dbl>
#>  1        18         19     1  2.69  0.371 0.711   
#>  2        18          9    -9  2.69 -3.34  0.000836
#>  3        15          9    -6  2.69 -2.23  0.0260  
#>  4        11         10    -1  2.69 -0.371 0.711   
#>  5         4          5     1  2.69  0.371 0.711   
#>  6         4          8     4  2.69  1.48  0.138   
#>  7        11          8    -3  2.69 -1.11  0.266   
#>  8        11         15     4  2.69  1.48  0.138   
#>  9         3          3     0  2.69  0     1       
#> 10         4          8     4  2.69  1.48  0.138   
#> # ℹ 990 more rows
…
