Simulate response patterns — simdata • mirt
…
d <- matrix(c(.1826,-.1924,-.4656,-.4336,-.4428,-.5845,-1.0403,
  .6431,.0122,.0912,.8082,-.1867,.4533,-1.8398,.4139,
  -.3004,-.1824,.5125,1.1342,.0230,.6172,-.1955,-.3668,
  -1.7590,-.2434,.4925,-.3410,.2896,.006,.0329),ncol=1)*1.702

mu <- c(-.4, -.7, .1)
sigma <- matrix(c(1.21,.297,1.232,.297,.81,.252,1.232,.252,1.96),3,3)

(dataset1 <- simdata(a, d, 2000, itemtype = '2PL'))
#> # A tibble: 2,000 × 30
#>    Item_1 Item_2 Item_3 Item_4 Item_5 Item_6 Item_7 Item_8 Item_9 Item_10
#>     <dbl>  <dbl>  <dbl>  <dbl>  <dbl>  <dbl>  <dbl>  <dbl>  <dbl>   <dbl>
#>  1      0      0      0      0      0      0      0      1      1       1
#>  2      1      0      0      0      1      0      1      1      1       1
#>  3      1      1      1      1      1      1      0      1      1       1
#>  4      0      0      0      0      0      0      0      0      0       0
#>  5      0      0      0      0      1      1      0      1      0       1
#>  6      1      1      1      1      1      1      1      1      1       1
#>  7      0      1      0      0      0      0      0      1      0       1
#>  8      0      0      0      1      0      0      0      1      0       1
#>  9      0      1      0      0      1      0      0      0      0       1
#> 10      1      0      1      0      0      0      0      0      1       0
#> # ℹ 1,990 more rows
#> # ℹ 20 more variables: Item_11 <dbl>, Item_12 <dbl>, Item_13 <dbl>,
#> #   Item_14 <dbl>, Item_15 <dbl>, Item_16 <dbl>, Item_17 <dbl>, Item_18 <dbl>,
#> #   Item_19 <dbl>, Item_20 <dbl>, Item_21 <dbl>, Item_22 <dbl>, Item_23 <dbl>,
#> #   Item_24 <dbl>, Item_25 <dbl>, Item_26 <dbl>, Item_27 <dbl>, Item_28 <dbl>,
#> #   Item_29 <dbl>, Item_30 <dbl>
(dataset2 <- simdata(a, d, 2000, itemtype = '2PL', mu = mu, sigma = sigma))
#> # A tibble: 2,000 × 30
#>    Item_1 Item_2 Item_3 Item_4 Item_5 Item_6 Item_7 Item_8 Item_9 Item_10
#>     <dbl>  <dbl>  <dbl>  <dbl>  <dbl>  <dbl>  <dbl>  <dbl>  <dbl>   <dbl>
#>  1      0      0      0      0      0      0      0      0      0       0
#>  2      1      0      1      1      0      0      0      1      0       0
#>  3      0      0      0      0      0      0      0      0      0       0
#>  4      0      0      1      0      1      0      0      1      0       0
#>  5      1      1      0      1      0      1      0      1      0       1
#>  6      1      1      0      0      0      0      0      0      1       1
#>  7      0      1      0      0      0      0      0      0      0       0
#>  8      1      1      0      1      0      0      0      0      0       0
#>  9      1      0      1      1      0      1      0      1      1       1
#> 10      0      0      1      0      0      0      0      1      0       1
#> # ℹ 1,990 more rows
#> # ℹ 20 more variables: Item_11 <dbl>, Item_12 <dbl>, Item_13 <dbl>,
#> #   Item_14 <dbl>, Item_15 <dbl>, Item_16 <dbl>, Item_17 <dbl>, Item_18 <dbl>,
#> #   Item_19 <dbl>, Item_20 <dbl>, Item_21 <dbl>, Item_22 <dbl>, Item_23 <dbl>,
#> #   Item_24 <dbl>, Item_25 <dbl>, Item_26 <dbl>, Item_27 <dbl>, Item_28 <dbl>,
#> #   Item_29 <dbl>, Item_30 <dbl>
…
# \donttest{

### Unidimensional graded response model with 5 categories each

a <- matrix(rlnorm(20,.2,.3))

# for the graded model, ensure that there is enough space between the intercepts,
# otherwise closer categories will not be selected often (minimum distance of 0.3 here)
diffs <- t(apply(matrix(runif(20*4, .3, 1), 20), 1, cumsum))
diffs <- -(diffs - rowMeans(diffs))
d <- diffs + rnorm(20)

dat <- simdata(a, d, 500, itemtype = 'graded')
dat
#> # A tibble: 500 × 20
#>    Item_1 Item_2 Item_3 Item_4 Item_5 Item_6 Item_7 Item_8 Item_9 Item_10
#>     <dbl>  <dbl>  <dbl>  <dbl>  <dbl>  <dbl>  <dbl>  <dbl>  <dbl>   <dbl>
#>  1      3      4      0      3      4      0      0      4      4       4
#>  2      3      4      3      0      4      0      4      4      4       4
#>  3      0      3      0      2      4      0      0      0      0       2
#>  4      4      4      0      4      4      0      2      0      4       2
#>  5      0      0      0      0      2      0      1      0      0       0
#>  6      0      4      4      4      4      4      4      1      4       4
#>  7      4      4      0      0      4      4      4      0      0       4
#>  8      0      4      0      0      4      0      4      0      4       4
#>  9      0      3      0      2      4      1      0      0      4       4
#> 10      3      2      0      0      4      4      4      4      1       0
#> # ℹ 490 more rows
#> # ℹ 10 more variables: Item_11 <dbl>, Item_12 <dbl>, Item_13 <dbl>,
#> #   Item_14 <dbl>, Item_15 <dbl>, Item_16 <dbl>, Item_17 <dbl>, Item_18 <dbl>,
#> #   Item_19 <dbl>, Item_20 <dbl>
…
nominal <- matrix(NA, nrow(d), ncol(d))
# the first 0 and last (ncat - 1) = 2 values are the recommended constraints
nominal[4, ] <- c(0,1.2,2)

sigma <- diag(3)
sigma[2,3] <- sigma[3,2] <- .25
items <- c('2PL','2PL','2PL','nominal','gpcm','graded')

(dataset <- simdata(a,d,2000,items,sigma=sigma,nominal=nominal))
#> # A tibble: 2,000 × 6
#>    Item_1 Item_2 Item_3 Item_4 Item_5 Item_6
#>     <dbl>  <dbl>  <dbl>  <dbl>  <dbl>  <dbl>
#>  1      0      1      0      2      1      1
#>  2      1      1      1      2      1      2
#>  3      1      0      0      0      1      1
#>  4      0      1      1      2      2      2
#>  5      0      0      0      0      0      1
#>  6      0      0      1      2      1      1
#>  7      0      1      1      1      1      1
#>  8      1      1      0      2      1      1
#>  9      0      1      0      0      1      1
#> 10      1      1      1      2      1      2
#> # ℹ 1,990 more rows
…
(dat <- simdata(a, d, 5000, itemtype = '2PL'))
#> # A tibble: 5,000 × 10
#>    Item_1 Item_2 Item_3 Item_4 Item_5 Item_6 Item_7 Item_8 Item_9 Item_10
#>     <dbl>  <dbl>  <dbl>  <dbl>  <dbl>  <dbl>  <dbl>  <dbl>  <dbl>   <dbl>
#>  1      0      1      0      0      0      0      1      0      1       0
#>  2      1      1      0      0      0      0      1      0      0       0
#>  3      0      1      0      0      0      0      0      0      1       0
#>  4      1      0      0      0      0      0      1      1      1       0
#>  5      1      1      1      0      0      0      1      1      1       0
#>  6      1      1      1      1      1      1      1      0      1       1
#>  7      0      1      1      0      0      0      1      0      1       1
#>  8      1      0      1      0      0      0      1      0      1       0
#>  9      0      1      0      1      0      0      1      0      0       0
#> 10      0      1      0      0      0      0      1      0      1       0
#> # ℹ 4,990 more rows
…
